<?xml version="1.0" encoding="UTF-8"?>
<glyph name="Eng" format="2">
	<advance width="782"/>
	<unicode hex="014A"/>
	<note>
		Eng
  </note>
	<outline>
		<contour>
			<point x="524" y="-264" type="curve"/>
			<point x="524" y="-264" type="line"/>
			<point x="588" y="-264"/>
			<point x="656" y="-229"/>
			<point x="656" y="-60" type="curve"/>
			<point x="656" y="577" type="line" smooth="yes"/>
			<point x="656" y="676"/>
			<point x="673" y="678"/>
			<point x="742" y="686" type="curve"/>
			<point x="762" y="688" type="line"/>
			<point x="762" y="713" type="line"/>
			<point x="641" y="711" type="line"/>
			<point x="520" y="713" type="line"/>
			<point x="520" y="688" type="line"/>
			<point x="540" y="686" type="line" smooth="yes"/>
			<point x="609" y="678"/>
			<point x="626" y="676"/>
			<point x="626" y="577" type="curve"/>
			<point x="626" y="187" type="line"/>
			<point x="573" y="255"/>
			<point x="307" y="604"/>
			<point x="230" y="710" type="curve"/>
			<point x="35" y="713" type="line"/>
			<point x="36" y="684" type="line"/>
			<point x="58" y="684" type="line" smooth="yes"/>
			<point x="110" y="684"/>
			<point x="131" y="664"/>
			<point x="146" y="649" type="curve"/>
			<point x="146" y="133" type="line" smooth="yes"/>
			<point x="146" y="34"/>
			<point x="129" y="32"/>
			<point x="60" y="24" type="curve"/>
			<point x="40" y="22" type="line"/>
			<point x="40" y="-3" type="line"/>
			<point x="161" y="-1" type="line"/>
			<point x="282" y="-3" type="line"/>
			<point x="282" y="22" type="line"/>
			<point x="262" y="24" type="line" smooth="yes"/>
			<point x="193" y="32"/>
			<point x="176" y="34"/>
			<point x="176" y="133" type="curve"/>
			<point x="176" y="617" type="line"/>
			<point x="272" y="506"/>
			<point x="559" y="135"/>
			<point x="626" y="0" type="curve"/>
			<point x="626" y="-58" type="line" smooth="yes"/>
			<point x="626" y="-150"/>
			<point x="605" y="-223"/>
			<point x="554" y="-223" type="curve"/>
			<point x="534" y="-223"/>
			<point x="534" y="-210"/>
			<point x="534" y="-187" type="curve"/>
			<point x="534" y="-160"/>
			<point x="516" y="-137"/>
			<point x="486" y="-137" type="curve"/>
			<point x="456" y="-137"/>
			<point x="438" y="-161"/>
			<point x="438" y="-187" type="curve"/>
			<point x="438" y="-237"/>
			<point x="474" y="-264"/>
		</contour>
	</outline>
</glyph>
