<?xml version="1.0" encoding="UTF-8"?>
<glyph name="Euro" format="2">
	<advance width="813"/>
	<unicode hex="20AC"/>
	<note>
		Euro
  </note>
	<outline>
		<contour>
			<point x="743" y="216" type="curve"/>
			<point x="743" y="216" type="line"/>
			<point x="712" y="222" type="line"/>
			<point x="693" y="152"/>
			<point x="644" y="19"/>
			<point x="499" y="19" type="curve"/>
			<point x="363" y="19"/>
			<point x="298" y="119"/>
			<point x="279" y="259" type="curve"/>
			<point x="575" y="259" type="line"/>
			<point x="589" y="291" type="line"/>
			<point x="276" y="291" type="line"/>
			<point x="274" y="312"/>
			<point x="273" y="333"/>
			<point x="273" y="355" type="curve"/>
			<point x="273" y="362"/>
			<point x="274" y="370"/>
			<point x="274" y="377" type="curve"/>
			<point x="615" y="377" type="line"/>
			<point x="629" y="409" type="line"/>
			<point x="277" y="409" type="line"/>
			<point x="295" y="601"/>
			<point x="359" y="694"/>
			<point x="495" y="694" type="curve"/>
			<point x="598" y="694"/>
			<point x="687" y="610"/>
			<point x="705" y="476" type="curve"/>
			<point x="730" y="476" type="line"/>
			<point x="727" y="593" type="line"/>
			<point x="729" y="710" type="line"/>
			<point x="704" y="710" type="line"/>
			<point x="701" y="682"/>
			<point x="688" y="672"/>
			<point x="674" y="672" type="curve"/>
			<point x="655" y="672"/>
			<point x="595" y="724"/>
			<point x="489" y="724" type="curve"/>
			<point x="320" y="724"/>
			<point x="195" y="585"/>
			<point x="174" y="409" type="curve"/>
			<point x="82" y="409" type="line"/>
			<point x="62" y="377" type="line"/>
			<point x="172" y="377" type="line"/>
			<point x="171" y="370"/>
			<point x="171" y="362"/>
			<point x="171" y="355" type="curve"/>
			<point x="171" y="333"/>
			<point x="172" y="312"/>
			<point x="175" y="291" type="curve"/>
			<point x="102" y="291" type="line"/>
			<point x="82" y="259" type="line"/>
			<point x="180" y="259" type="line"/>
			<point x="209" y="102"/>
			<point x="312" y="-11"/>
			<point x="483" y="-11" type="curve"/>
			<point x="675" y="-11"/>
			<point x="721" y="131"/>
		</contour>
	</outline>
</glyph>
