<?xml version="1.0" encoding="UTF-8"?>
<glyph name="ecircumflex.sc" format="2">
	<advance width="482"/>
	<note>
		ecircumflex.sc
  </note>
	<outline>
		<contour>
			<point x="332" y="505" type="line"/>
			<point x="356" y="505" type="line"/>
			<point x="262" y="695" type="line"/>
			<point x="240" y="695" type="line"/>
			<point x="146" y="505" type="line"/>
			<point x="170" y="505" type="line"/>
			<point x="248" y="603" type="line"/>
			<point x="254" y="603" type="line"/>
		</contour>
		<contour>
			<point x="45" y="22" type="curve"/>
			<point x="45" y="22" type="line"/>
			<point x="29" y="20" type="line"/>
			<point x="29" y="-3" type="line"/>
			<point x="152" y="0" type="line"/>
			<point x="438" y="0" type="line"/>
			<point x="438" y="63" type="line"/>
			<point x="445" y="144" type="line"/>
			<point x="424" y="144" type="line"/>
			<point x="407" y="69"/>
			<point x="397" y="25"/>
			<point x="319" y="25" type="curve"/>
			<point x="253" y="25" type="line" smooth="yes"/>
			<point x="201" y="25"/>
			<point x="187" y="44"/>
			<point x="187" y="78" type="curve"/>
			<point x="187" y="223" type="line"/>
			<point x="267" y="223" type="line" smooth="yes"/>
			<point x="296" y="223"/>
			<point x="313" y="199"/>
			<point x="313" y="134" type="curve"/>
			<point x="334" y="134" type="line"/>
			<point x="331" y="234" type="line"/>
			<point x="334" y="326" type="line"/>
			<point x="313" y="326" type="line"/>
			<point x="310" y="263"/>
			<point x="293" y="246"/>
			<point x="270" y="246" type="curve"/>
			<point x="187" y="246" type="line"/>
			<point x="187" y="430" type="line"/>
			<point x="280" y="430" type="line" smooth="yes"/>
			<point x="371" y="430"/>
			<point x="381" y="404"/>
			<point x="401" y="343" type="curve"/>
			<point x="422" y="343" type="line"/>
			<point x="416" y="411" type="line"/>
			<point x="416" y="455" type="line"/>
			<point x="153" y="455" type="line"/>
			<point x="30" y="458" type="line"/>
			<point x="30" y="435" type="line"/>
			<point x="46" y="433" type="line" smooth="yes"/>
			<point x="104" y="426"/>
			<point x="117" y="424"/>
			<point x="117" y="334" type="curve"/>
			<point x="117" y="121" type="line" smooth="yes"/>
			<point x="117" y="31"/>
			<point x="103" y="29"/>
		</contour>
	</outline>
</glyph>
