<?xml version="1.0" encoding="UTF-8"?>
<glyph name="greaterequal" format="2">
	<advance width="502"/>
	<unicode hex="2265"/>
	<note>
		greaterequal
  </note>
	<outline>
		<contour>
			<point x="100" y="497" type="line"/>
			<point x="100" y="455" type="line"/>
			<point x="372" y="321" type="line"/>
			<point x="100" y="188" type="line"/>
			<point x="100" y="144" type="line"/>
			<point x="442" y="307" type="line"/>
			<point x="442" y="334" type="line"/>
		</contour>
		<contour>
			<point x="103" y="11" type="line"/>
			<point x="442" y="11" type="line"/>
			<point x="442" y="51" type="line"/>
			<point x="103" y="51" type="line"/>
		</contour>
	</outline>
</glyph>
