<?xml version="1.0" encoding="UTF-8"?>
<glyph name="u_l_l" format="2">
	<advance width="734"/>
	<unicode hex="F5160"/>
	<note>
		u_l_l
  </note>
	<outline>
		<contour>
			<point x="408" y="0" type="line"/>
			<point x="601" y="0" type="line"/>
			<point x="724" y="-3" type="line"/>
			<point x="724" y="20" type="line"/>
			<point x="708" y="22" type="line" smooth="yes"/>
			<point x="650" y="29"/>
			<point x="636" y="31"/>
			<point x="636" y="121" type="curve"/>
			<point x="636" y="725" type="line"/>
			<point x="581" y="715"/>
			<point x="533" y="713"/>
			<point x="478" y="713" type="curve"/>
			<point x="478" y="725" type="line"/>
			<point x="423" y="715"/>
			<point x="375" y="713"/>
			<point x="320" y="713" type="curve"/>
			<point x="320" y="690" type="line"/>
			<point x="327" y="690" type="line" smooth="yes"/>
			<point x="377" y="690"/>
			<point x="408" y="678"/>
			<point x="408" y="609" type="curve"/>
			<point x="408" y="133" type="line"/>
			<point x="384" y="78"/>
			<point x="334" y="21"/>
			<point x="261" y="21" type="curve"/>
			<point x="204" y="21"/>
			<point x="168" y="56"/>
			<point x="168" y="122" type="curve"/>
			<point x="168" y="434" type="line"/>
			<point x="133" y="433" type="line"/>
			<point x="10" y="436" type="line"/>
			<point x="10" y="413" type="line"/>
			<point x="26" y="411" type="line" smooth="yes"/>
			<point x="84" y="404"/>
			<point x="98" y="402"/>
			<point x="98" y="312" type="curve"/>
			<point x="98" y="118" type="line" smooth="yes"/>
			<point x="98" y="33"/>
			<point x="151" y="-11"/>
			<point x="238" y="-11" type="curve"/>
			<point x="303" y="-11"/>
			<point x="352" y="16"/>
			<point x="387" y="55" type="curve"/>
			<point x="395" y="64"/>
			<point x="402" y="73"/>
			<point x="408" y="83" type="curve"/>
		</contour>
		<contour>
			<point x="566" y="609" type="curve"/>
			<point x="566" y="609" type="line"/>
			<point x="566" y="78" type="line" smooth="yes"/>
			<point x="566" y="35"/>
			<point x="554" y="26"/>
			<point x="524" y="24" type="curve"/>
			<point x="490" y="26"/>
			<point x="478" y="35"/>
			<point x="478" y="78" type="curve"/>
			<point x="478" y="690" type="line"/>
			<point x="485" y="690" type="line" smooth="yes"/>
			<point x="535" y="690"/>
			<point x="566" y="678"/>
		</contour>
	</outline>
</glyph>
