<?xml version="1.0" encoding="UTF-8"?>
<glyph name="uni0307.sc" format="2">
	<advance width="0"/>
	<note>
		uni0307.sc
  </note>
	<outline>
		<contour>
			<point x="-147" y="798" type="curve"/>
			<point x="-147" y="798" type="line"/>
			<point x="-109" y="798"/>
			<point x="-91" y="825"/>
			<point x="-91" y="859" type="curve"/>
			<point x="-91" y="893"/>
			<point x="-109" y="920"/>
			<point x="-147" y="920" type="curve"/>
			<point x="-182" y="920"/>
			<point x="-203" y="893"/>
			<point x="-203" y="859" type="curve"/>
			<point x="-203" y="825"/>
			<point x="-182" y="798"/>
		</contour>
	</outline>
</glyph>
