<?xml version="1.0" encoding="UTF-8"?>
<glyph name="Wdieresis" format="2">
	<advance width="1049"/>
	<unicode hex="1E84"/>
	<note>
		Wdieresis
  </note>
	<outline>
		<contour>
			<point x="453" y="822" type="curve"/>
			<point x="453" y="822" type="line"/>
			<point x="487" y="822"/>
			<point x="503" y="847"/>
			<point x="503" y="879" type="curve"/>
			<point x="503" y="910"/>
			<point x="487" y="935"/>
			<point x="453" y="935" type="curve"/>
			<point x="421" y="935"/>
			<point x="402" y="910"/>
			<point x="402" y="879" type="curve"/>
			<point x="402" y="847"/>
			<point x="421" y="822"/>
		</contour>
		<contour>
			<point x="643" y="822" type="curve"/>
			<point x="643" y="822" type="line"/>
			<point x="677" y="822"/>
			<point x="693" y="847"/>
			<point x="693" y="879" type="curve"/>
			<point x="693" y="910"/>
			<point x="677" y="935"/>
			<point x="643" y="935" type="curve"/>
			<point x="611" y="935"/>
			<point x="592" y="910"/>
			<point x="592" y="879" type="curve"/>
			<point x="592" y="847"/>
			<point x="611" y="822"/>
		</contour>
		<contour>
			<point x="1040" y="683" type="curve"/>
			<point x="1040" y="683" type="line"/>
			<point x="1064" y="687" type="line"/>
			<point x="1064" y="713" type="line"/>
			<point x="958" y="710" type="line"/>
			<point x="826" y="713" type="line"/>
			<point x="826" y="687" type="line"/>
			<point x="859" y="683" type="line" smooth="yes"/>
			<point x="897" y="678"/>
			<point x="918" y="668"/>
			<point x="918" y="639" type="curve"/>
			<point x="918" y="631"/>
			<point x="916" y="621"/>
			<point x="913" y="610" type="curve"/>
			<point x="766" y="129" type="line"/>
			<point x="599" y="582" type="line" smooth="yes"/>
			<point x="592" y="600"/>
			<point x="589" y="616"/>
			<point x="589" y="629" type="curve"/>
			<point x="589" y="662"/>
			<point x="611" y="681"/>
			<point x="654" y="684" type="curve"/>
			<point x="692" y="687" type="line"/>
			<point x="690" y="713" type="line"/>
			<point x="653" y="711" type="line" smooth="yes"/>
			<point x="617" y="709"/>
			<point x="573" y="704"/>
			<point x="552" y="664" type="curve"/>
			<point x="542" y="688"/>
			<point x="514" y="703"/>
			<point x="464" y="708" type="curve"/>
			<point x="422" y="713" type="line"/>
			<point x="418" y="687" type="line"/>
			<point x="458" y="681" type="line" smooth="yes"/>
			<point x="497" y="675"/>
			<point x="521" y="660"/>
			<point x="521" y="629" type="curve"/>
			<point x="521" y="621"/>
			<point x="519" y="611"/>
			<point x="515" y="599" type="curve"/>
			<point x="341" y="126" type="line"/>
			<point x="188" y="598" type="line" smooth="yes"/>
			<point x="183" y="612"/>
			<point x="181" y="623"/>
			<point x="181" y="633" type="curve"/>
			<point x="181" y="674"/>
			<point x="219" y="681"/>
			<point x="255" y="685" type="curve"/>
			<point x="283" y="688" type="line"/>
			<point x="283" y="713" type="line"/>
			<point x="135" y="710" type="line"/>
			<point x="-15" y="713" type="line"/>
			<point x="-15" y="688" type="line"/>
			<point x="8" y="683" type="line" smooth="yes"/>
			<point x="51" y="674"/>
			<point x="81" y="651"/>
			<point x="99" y="594" type="curve"/>
			<point x="295" y="-9" type="line"/>
			<point x="327" y="-9" type="line"/>
			<point x="526" y="530" type="line"/>
			<point x="728" y="-9" type="line"/>
			<point x="760" y="-9" type="line"/>
			<point x="952" y="621" type="line" smooth="yes"/>
			<point x="963" y="658"/>
			<point x="996" y="676"/>
		</contour>
	</outline>
</glyph>
