<?xml version="1.0" encoding="UTF-8"?>
<glyph name="five.numr" format="2">
	<advance width="343"/>
	<note>
		five.numr
  </note>
	<outline>
		<contour>
			<point x="187" y="557" type="curve"/>
			<point x="187" y="557" type="line"/>
			<point x="149" y="557"/>
			<point x="116" y="542"/>
			<point x="97" y="522" type="curve"/>
			<point x="97" y="646" type="line"/>
			<point x="183" y="646" type="line" smooth="yes"/>
			<point x="239" y="646"/>
			<point x="286" y="650"/>
			<point x="287" y="713" type="curve"/>
			<point x="264" y="712"/>
			<point x="213" y="710"/>
			<point x="178" y="710" type="curve"/>
			<point x="74" y="710" type="line"/>
			<point x="72" y="485" type="line"/>
			<point x="95" y="485" type="line"/>
			<point x="112" y="516"/>
			<point x="138" y="534"/>
			<point x="168" y="534" type="curve"/>
			<point x="206" y="534"/>
			<point x="229" y="496"/>
			<point x="229" y="436" type="curve"/>
			<point x="229" y="378"/>
			<point x="208" y="315"/>
			<point x="139" y="315" type="curve"/>
			<point x="108" y="315"/>
			<point x="93" y="321"/>
			<point x="93" y="337" type="curve"/>
			<point x="93" y="350"/>
			<point x="104" y="359"/>
			<point x="104" y="378" type="curve"/>
			<point x="104" y="399"/>
			<point x="89" y="411"/>
			<point x="68" y="412" type="curve"/>
			<point x="42" y="412"/>
			<point x="25" y="391"/>
			<point x="25" y="366" type="curve"/>
			<point x="25" y="322"/>
			<point x="78" y="292"/>
			<point x="138" y="292" type="curve"/>
			<point x="237" y="292"/>
			<point x="303" y="349"/>
			<point x="303" y="436" type="curve"/>
			<point x="303" y="510"/>
			<point x="256" y="557"/>
		</contour>
	</outline>
</glyph>
