<?xml version="1.0" encoding="UTF-8"?>
<glyph name="quotedblleft.sc" format="2">
	<advance width="430"/>
	<note>
		quotedblleft.sc
  </note>
	<outline>
		<contour>
			<point x="133" y="438" type="curve"/>
			<point x="133" y="438" type="line"/>
			<point x="120" y="459" type="line"/>
			<point x="63" y="422"/>
			<point x="20" y="382"/>
			<point x="20" y="301" type="curve"/>
			<point x="20" y="234"/>
			<point x="52" y="192"/>
			<point x="100" y="192" type="curve"/>
			<point x="139" y="192"/>
			<point x="165" y="218"/>
			<point x="165" y="257" type="curve"/>
			<point x="165" y="292"/>
			<point x="141" y="316"/>
			<point x="106" y="316" type="curve"/>
			<point x="82" y="316"/>
			<point x="59" y="298"/>
			<point x="59" y="279" type="curve"/>
			<point x="59" y="270"/>
			<point x="63" y="264"/>
			<point x="63" y="260" type="curve"/>
			<point x="63" y="259"/>
			<point x="63" y="258"/>
			<point x="61" y="257" type="curve"/>
			<point x="49" y="251"/>
			<point x="42" y="279"/>
			<point x="42" y="303" type="curve"/>
			<point x="42" y="366"/>
			<point x="85" y="406"/>
		</contour>
		<contour>
			<point x="348" y="438" type="curve"/>
			<point x="348" y="438" type="line"/>
			<point x="335" y="459" type="line"/>
			<point x="278" y="422"/>
			<point x="235" y="382"/>
			<point x="235" y="301" type="curve"/>
			<point x="235" y="234"/>
			<point x="267" y="192"/>
			<point x="315" y="192" type="curve"/>
			<point x="354" y="192"/>
			<point x="380" y="218"/>
			<point x="380" y="257" type="curve"/>
			<point x="380" y="292"/>
			<point x="356" y="316"/>
			<point x="321" y="316" type="curve"/>
			<point x="297" y="316"/>
			<point x="274" y="298"/>
			<point x="274" y="279" type="curve"/>
			<point x="274" y="270"/>
			<point x="278" y="264"/>
			<point x="278" y="260" type="curve"/>
			<point x="278" y="259"/>
			<point x="278" y="258"/>
			<point x="276" y="257" type="curve"/>
			<point x="264" y="251"/>
			<point x="257" y="279"/>
			<point x="257" y="303" type="curve"/>
			<point x="257" y="366"/>
			<point x="300" y="406"/>
		</contour>
	</outline>
</glyph>
