<?xml version="1.0" encoding="UTF-8"?>
<glyph name="two.subs" format="2">
	<advance width="348"/>
	<note>
		two.subs
  </note>
	<outline>
		<contour>
			<point x="35" y="-257" type="line"/>
			<point x="35" y="-280" type="line"/>
			<point x="306" y="-280" type="line"/>
			<point x="306" y="-263" type="line"/>
			<point x="308" y="-177" type="line"/>
			<point x="287" y="-177" type="line"/>
			<point x="274" y="-213"/>
			<point x="267" y="-219"/>
			<point x="215" y="-220" type="curve"/>
			<point x="108" y="-222" type="line"/>
			<point x="186" y="-153" type="line" smooth="yes"/>
			<point x="257" y="-90"/>
			<point x="305" y="-42"/>
			<point x="305" y="18" type="curve"/>
			<point x="305" y="92"/>
			<point x="252" y="140"/>
			<point x="170" y="140" type="curve"/>
			<point x="81" y="140"/>
			<point x="30" y="79"/>
			<point x="30" y="29" type="curve"/>
			<point x="30" y="-5"/>
			<point x="45" y="-31"/>
			<point x="79" y="-31" type="curve"/>
			<point x="100" y="-31"/>
			<point x="115" y="-17"/>
			<point x="115" y="1" type="curve"/>
			<point x="115" y="21"/>
			<point x="104" y="31"/>
			<point x="93" y="37" type="curve"/>
			<point x="84" y="42"/>
			<point x="76" y="43"/>
			<point x="76" y="59" type="curve"/>
			<point x="76" y="91"/>
			<point x="109" y="114"/>
			<point x="150" y="114" type="curve"/>
			<point x="205" y="114"/>
			<point x="231" y="74"/>
			<point x="231" y="13" type="curve"/>
			<point x="231" y="-42"/>
			<point x="208" y="-86"/>
			<point x="153" y="-143" type="curve"/>
		</contour>
	</outline>
</glyph>
