<?xml version="1.0" encoding="UTF-8"?>
<glyph name="uni0308.sc" format="2">
	<advance width="0"/>
	<note>
		uni0308.sc
  </note>
	<outline>
		<contour>
			<point x="-257" y="831" type="curve"/>
			<point x="-257" y="831" type="line"/>
			<point x="-223" y="831"/>
			<point x="-207" y="856"/>
			<point x="-207" y="888" type="curve"/>
			<point x="-207" y="919"/>
			<point x="-223" y="944"/>
			<point x="-257" y="944" type="curve"/>
			<point x="-289" y="944"/>
			<point x="-308" y="919"/>
			<point x="-308" y="888" type="curve"/>
			<point x="-308" y="856"/>
			<point x="-289" y="831"/>
		</contour>
		<contour>
			<point x="-67" y="831" type="curve"/>
			<point x="-67" y="831" type="line"/>
			<point x="-33" y="831"/>
			<point x="-17" y="856"/>
			<point x="-17" y="888" type="curve"/>
			<point x="-17" y="919"/>
			<point x="-33" y="944"/>
			<point x="-67" y="944" type="curve"/>
			<point x="-99" y="944"/>
			<point x="-118" y="919"/>
			<point x="-118" y="888" type="curve"/>
			<point x="-118" y="856"/>
			<point x="-99" y="831"/>
		</contour>
	</outline>
</glyph>
