<?xml version="1.0" encoding="UTF-8"?>
<glyph name="uni01DC" format="2">
	<advance width="571"/>
	<unicode hex="01DC"/>
	<note>
		uni01DC
  </note>
	<outline>
		<contour>
			<point x="191" y="852" type="curve"/>
			<point x="191" y="852" type="line"/>
			<point x="265" y="733" type="line"/>
			<point x="287" y="733" type="line"/>
			<point x="248" y="881" type="line" smooth="yes"/>
			<point x="237" y="923"/>
			<point x="221" y="937"/>
			<point x="205" y="937" type="curve"/>
			<point x="189" y="937"/>
			<point x="174" y="925"/>
			<point x="174" y="901" type="curve"/>
			<point x="174" y="885"/>
			<point x="181" y="868"/>
		</contour>
		<contour>
			<point x="163" y="565" type="curve"/>
			<point x="163" y="565" type="line"/>
			<point x="197" y="565"/>
			<point x="213" y="590"/>
			<point x="213" y="622" type="curve"/>
			<point x="213" y="653"/>
			<point x="197" y="678"/>
			<point x="163" y="678" type="curve"/>
			<point x="131" y="678"/>
			<point x="112" y="653"/>
			<point x="112" y="622" type="curve"/>
			<point x="112" y="590"/>
			<point x="131" y="565"/>
		</contour>
		<contour>
			<point x="353" y="565" type="curve"/>
			<point x="353" y="565" type="line"/>
			<point x="387" y="565"/>
			<point x="403" y="590"/>
			<point x="403" y="622" type="curve"/>
			<point x="403" y="653"/>
			<point x="387" y="678"/>
			<point x="353" y="678" type="curve"/>
			<point x="321" y="678"/>
			<point x="302" y="653"/>
			<point x="302" y="622" type="curve"/>
			<point x="302" y="590"/>
			<point x="321" y="565"/>
		</contour>
		<contour>
			<point x="478" y="111" type="curve"/>
			<point x="478" y="111" type="line"/>
			<point x="478" y="434" type="line"/>
			<point x="443" y="433" type="line"/>
			<point x="320" y="436" type="line"/>
			<point x="320" y="413" type="line"/>
			<point x="336" y="411" type="line" smooth="yes"/>
			<point x="394" y="404"/>
			<point x="408" y="402"/>
			<point x="408" y="312" type="curve"/>
			<point x="408" y="133" type="line"/>
			<point x="384" y="78"/>
			<point x="334" y="21"/>
			<point x="261" y="21" type="curve"/>
			<point x="204" y="21"/>
			<point x="168" y="56"/>
			<point x="168" y="122" type="curve"/>
			<point x="168" y="434" type="line"/>
			<point x="133" y="433" type="line"/>
			<point x="10" y="436" type="line"/>
			<point x="10" y="413" type="line"/>
			<point x="26" y="411" type="line" smooth="yes"/>
			<point x="84" y="404"/>
			<point x="98" y="402"/>
			<point x="98" y="312" type="curve"/>
			<point x="98" y="118" type="line" smooth="yes"/>
			<point x="98" y="33"/>
			<point x="151" y="-11"/>
			<point x="238" y="-11" type="curve"/>
			<point x="303" y="-11"/>
			<point x="352" y="16"/>
			<point x="387" y="55" type="curve"/>
			<point x="395" y="64"/>
			<point x="402" y="73"/>
			<point x="408" y="83" type="curve"/>
			<point x="408" y="-9" type="line"/>
			<point x="466" y="1"/>
			<point x="506" y="1"/>
			<point x="561" y="1" type="curve"/>
			<point x="561" y="24" type="line"/>
			<point x="507" y="24"/>
			<point x="478" y="35"/>
		</contour>
	</outline>
</glyph>
