<?xml version="1.0" encoding="UTF-8"?>
<glyph name="yen" format="2">
	<advance width="662"/>
	<unicode hex="00A5"/>
	<note>
		yen
  </note>
	<outline>
		<contour>
			<point x="655" y="683" type="curve"/>
			<point x="655" y="683" type="line"/>
			<point x="682" y="688" type="line"/>
			<point x="682" y="713" type="line"/>
			<point x="576" y="708" type="line"/>
			<point x="444" y="713" type="line"/>
			<point x="444" y="688" type="line"/>
			<point x="473" y="685" type="line" smooth="yes"/>
			<point x="506" y="682"/>
			<point x="530" y="672"/>
			<point x="530" y="644" type="curve"/>
			<point x="530" y="629"/>
			<point x="523" y="609"/>
			<point x="508" y="582" type="curve"/>
			<point x="363" y="328" type="line"/>
			<point x="217" y="582" type="line" smooth="yes"/>
			<point x="202" y="608"/>
			<point x="195" y="628"/>
			<point x="195" y="643" type="curve"/>
			<point x="195" y="670"/>
			<point x="217" y="682"/>
			<point x="250" y="685" type="curve"/>
			<point x="282" y="688" type="line"/>
			<point x="282" y="713" type="line"/>
			<point x="132" y="710" type="line"/>
			<point x="-20" y="713" type="line"/>
			<point x="-20" y="688" type="line"/>
			<point x="9" y="682" type="line" smooth="yes"/>
			<point x="63" y="671"/>
			<point x="88" y="647"/>
			<point x="119" y="593" type="curve"/>
			<point x="280" y="311" type="line"/>
			<point x="125" y="311" type="line"/>
			<point x="125" y="279" type="line"/>
			<point x="294" y="279" type="line"/>
			<point x="294" y="197" type="line"/>
			<point x="125" y="197" type="line"/>
			<point x="125" y="165" type="line"/>
			<point x="294" y="165" type="line"/>
			<point x="294" y="133" type="line" smooth="yes"/>
			<point x="294" y="34"/>
			<point x="277" y="32"/>
			<point x="208" y="24" type="curve"/>
			<point x="188" y="22" type="line"/>
			<point x="188" y="-3" type="line"/>
			<point x="336" y="0" type="line"/>
			<point x="337" y="0" type="line"/>
			<point x="485" y="-3" type="line"/>
			<point x="485" y="22" type="line"/>
			<point x="465" y="24" type="line" smooth="yes"/>
			<point x="396" y="32"/>
			<point x="379" y="34"/>
			<point x="379" y="133" type="curve"/>
			<point x="379" y="165" type="line"/>
			<point x="541" y="165" type="line"/>
			<point x="541" y="197" type="line"/>
			<point x="379" y="197" type="line"/>
			<point x="379" y="279" type="line"/>
			<point x="541" y="279" type="line"/>
			<point x="541" y="311" type="line"/>
			<point x="392" y="311" type="line"/>
			<point x="561" y="606" type="line" smooth="yes"/>
			<point x="589" y="655"/>
			<point x="612" y="675"/>
		</contour>
	</outline>
</glyph>
