<?xml version="1.0" encoding="UTF-8"?>
<glyph name="d_e" format="2">
	<advance width="773"/>
	<unicode hex="F1710"/>
	<note>
		d_e
	</note>
	<outline>
		<contour>
			<point x="457" y="109" type="curve"/>
			<point x="457" y="217" type="line" smooth="yes"/>
			<point x="457" y="227"/>
			<point x="457" y="236"/>
			<point x="458" y="245" type="curve"/>
			<point x="760" y="245" type="line"/>
			<point x="761" y="249"/>
			<point x="763" y="260"/>
			<point x="763" y="276" type="curve"/>
			<point x="763" y="382"/>
			<point x="701" y="454"/>
			<point x="599" y="454" type="curve"/>
			<point x="545" y="454"/>
			<point x="496" y="434"/>
			<point x="457" y="400" type="curve"/>
			<point x="457" y="725" type="line"/>
			<point x="402" y="715"/>
			<point x="354" y="713"/>
			<point x="299" y="713" type="curve"/>
			<point x="299" y="690" type="line"/>
			<point x="306" y="690" type="line" smooth="yes"/>
			<point x="356" y="690"/>
			<point x="387" y="678"/>
			<point x="387" y="609" type="curve"/>
			<point x="387" y="397" type="line"/>
			<point x="357" y="427"/>
			<point x="308" y="454"/>
			<point x="252" y="454" type="curve"/>
			<point x="133" y="454"/>
			<point x="45" y="352"/>
			<point x="45" y="223" type="curve"/>
			<point x="45" y="92"/>
			<point x="133" y="-11"/>
			<point x="248" y="-11" type="curve"/>
			<point x="310" y="-11"/>
			<point x="360" y="19"/>
			<point x="396" y="62" type="curve"/>
			<point x="409" y="-8" type="line"/>
			<point x="444" y="-1"/>
			<point x="469" y="0"/>
			<point x="499" y="0" type="curve"/>
			<point x="540" y="0" type="line"/>
			<point x="540" y="23" type="line"/>
			<point x="486" y="23"/>
			<point x="457" y="34"/>
		</contour>
		<contour>
			<point x="599" y="429" type="curve"/>
			<point x="648" y="429"/>
			<point x="696" y="393"/>
			<point x="696" y="335" type="curve"/>
			<point x="696" y="305"/>
			<point x="677" y="268"/>
			<point x="587" y="268" type="curve"/>
			<point x="460" y="268" type="line"/>
			<point x="471" y="365"/>
			<point x="517" y="429"/>
		</contour>
		<contour>
			<point x="258" y="19" type="curve"/>
			<point x="169" y="19"/>
			<point x="125" y="107"/>
			<point x="125" y="223" type="curve"/>
			<point x="125" y="337"/>
			<point x="169" y="424"/>
			<point x="261" y="424" type="curve"/>
			<point x="316" y="424"/>
			<point x="365" y="390"/>
			<point x="387" y="356" type="curve"/>
			<point x="387" y="86" type="line"/>
			<point x="357" y="49"/>
			<point x="315" y="19"/>
		</contour>
	</outline>
	<lib>
		<dict>
			<key>com.schriftgestaltung.Glyphs.rightMetricsKey</key>
			<string>u</string>
		</dict>
	</lib>
</glyph>
