<?xml version="1.0" encoding="UTF-8"?>
<glyph name="ecaron" format="2">
	<advance width="482"/>
	<unicode hex="011B"/>
	<note>
		ecaron
	</note>
	<outline>
		<contour>
			<point x="269" y="613" type="line"/>
			<point x="191" y="711" type="line"/>
			<point x="167" y="711" type="line"/>
			<point x="261" y="521" type="line"/>
			<point x="283" y="521" type="line"/>
			<point x="377" y="711" type="line"/>
			<point x="353" y="711" type="line"/>
			<point x="275" y="613" type="line"/>
		</contour>
		<contour>
			<point x="447" y="115" type="curve"/>
			<point x="447" y="115" type="line"/>
			<point x="423" y="124" type="line"/>
			<point x="396" y="54"/>
			<point x="345" y="19"/>
			<point x="283" y="19" type="curve"/>
			<point x="182" y="19"/>
			<point x="130" y="110"/>
			<point x="130" y="217" type="curve"/>
			<point x="130" y="227"/>
			<point x="130" y="236"/>
			<point x="131" y="245" type="curve"/>
			<point x="433" y="245" type="line"/>
			<point x="434" y="249"/>
			<point x="436" y="260"/>
			<point x="436" y="276" type="curve"/>
			<point x="436" y="382"/>
			<point x="374" y="454"/>
			<point x="272" y="454" type="curve"/>
			<point x="150" y="454"/>
			<point x="50" y="351"/>
			<point x="50" y="212" type="curve"/>
			<point x="50" y="81"/>
			<point x="137" y="-11"/>
			<point x="269" y="-11" type="curve"/>
			<point x="360" y="-11"/>
			<point x="419" y="31"/>
		</contour>
		<contour>
			<point x="272" y="429" type="curve"/>
			<point x="272" y="429" type="line"/>
			<point x="321" y="429"/>
			<point x="369" y="393"/>
			<point x="369" y="335" type="curve"/>
			<point x="369" y="305"/>
			<point x="350" y="268"/>
			<point x="260" y="268" type="curve"/>
			<point x="133" y="268" type="line"/>
			<point x="144" y="365"/>
			<point x="190" y="429"/>
		</contour>
	</outline>
</glyph>
