<?xml version="1.0" encoding="UTF-8"?>
<glyph name="eight.sups" format="2">
	<advance width="368"/>
	<note>
		eight.sups
	</note>
	<outline>
		<contour>
			<point x="184" y="291" type="curve"/>
			<point x="184" y="291" type="line"/>
			<point x="282" y="291"/>
			<point x="333" y="352"/>
			<point x="333" y="407" type="curve"/>
			<point x="333" y="458"/>
			<point x="294" y="501"/>
			<point x="233" y="518" type="curve"/>
			<point x="289" y="533"/>
			<point x="324" y="569"/>
			<point x="324" y="614" type="curve"/>
			<point x="324" y="663"/>
			<point x="276" y="717"/>
			<point x="187" y="717" type="curve"/>
			<point x="105" y="717"/>
			<point x="52" y="663"/>
			<point x="52" y="614" type="curve"/>
			<point x="52" y="570"/>
			<point x="84" y="535"/>
			<point x="137" y="519" type="curve"/>
			<point x="75" y="503"/>
			<point x="35" y="459"/>
			<point x="35" y="407" type="curve"/>
			<point x="35" y="352"/>
			<point x="86" y="291"/>
		</contour>
		<contour>
			<point x="187" y="528" type="curve"/>
			<point x="187" y="528" type="line"/>
			<point x="146" y="528"/>
			<point x="123" y="559"/>
			<point x="123" y="614" type="curve"/>
			<point x="123" y="664"/>
			<point x="141" y="697"/>
			<point x="187" y="697" type="curve"/>
			<point x="234" y="697"/>
			<point x="252" y="664"/>
			<point x="252" y="614" type="curve"/>
			<point x="252" y="559"/>
			<point x="229" y="528"/>
		</contour>
		<contour>
			<point x="184" y="312" type="curve"/>
			<point x="184" y="312" type="line"/>
			<point x="132" y="312"/>
			<point x="109" y="341"/>
			<point x="109" y="407" type="curve"/>
			<point x="109" y="472"/>
			<point x="134" y="507"/>
			<point x="184" y="507" type="curve"/>
			<point x="234" y="507"/>
			<point x="259" y="472"/>
			<point x="259" y="407" type="curve"/>
			<point x="259" y="341"/>
			<point x="237" y="312"/>
		</contour>
	</outline>
</glyph>
