<?xml version="1.0" encoding="UTF-8"?>
<glyph name="ellipsis" format="2">
	<advance width="861"/>
	<unicode hex="2026"/>
	<note>
		ellipsis
	</note>
	<outline>
		<contour>
			<point x="124" y="-11" type="curve"/>
			<point x="124" y="-11" type="line"/>
			<point x="159" y="-11"/>
			<point x="186" y="18"/>
			<point x="186" y="53" type="curve"/>
			<point x="186" y="86"/>
			<point x="159" y="115"/>
			<point x="124" y="115" type="curve"/>
			<point x="87" y="115"/>
			<point x="60" y="86"/>
			<point x="60" y="53" type="curve"/>
			<point x="60" y="18"/>
			<point x="87" y="-11"/>
		</contour>
		<contour>
			<point x="432" y="-11" type="curve"/>
			<point x="432" y="-11" type="line"/>
			<point x="467" y="-11"/>
			<point x="494" y="18"/>
			<point x="494" y="53" type="curve"/>
			<point x="494" y="86"/>
			<point x="467" y="115"/>
			<point x="432" y="115" type="curve"/>
			<point x="395" y="115"/>
			<point x="368" y="86"/>
			<point x="368" y="53" type="curve"/>
			<point x="368" y="18"/>
			<point x="395" y="-11"/>
		</contour>
		<contour>
			<point x="739" y="-11" type="curve"/>
			<point x="739" y="-11" type="line"/>
			<point x="774" y="-11"/>
			<point x="801" y="18"/>
			<point x="801" y="53" type="curve"/>
			<point x="801" y="86"/>
			<point x="774" y="115"/>
			<point x="739" y="115" type="curve"/>
			<point x="702" y="115"/>
			<point x="675" y="86"/>
			<point x="675" y="53" type="curve"/>
			<point x="675" y="18"/>
			<point x="702" y="-11"/>
		</contour>
	</outline>
</glyph>
