<?xml version="1.0" encoding="UTF-8"?>
<glyph name="i_e" format="2">
	<advance width="537"/>
	<unicode hex="F2710"/>
	<note>
		i_e
	</note>
	<outline>
		<contour>
			<point x="150" y="245" type="line"/>
			<point x="197" y="245" type="line"/>
			<point x="499" y="245" type="line"/>
			<point x="500" y="249"/>
			<point x="502" y="260"/>
			<point x="502" y="276" type="curve"/>
			<point x="502" y="382"/>
			<point x="440" y="454"/>
			<point x="338" y="454" type="curve"/>
			<point x="259" y="454"/>
			<point x="189" y="411"/>
			<point x="150" y="343" type="curve"/>
		</contour>
		<contour>
			<point x="199" y="268" type="line"/>
			<point x="210" y="365"/>
			<point x="256" y="429"/>
			<point x="338" y="429" type="curve"/>
			<point x="387" y="429"/>
			<point x="435" y="393"/>
			<point x="435" y="335" type="curve"/>
			<point x="435" y="305"/>
			<point x="416" y="268"/>
			<point x="326" y="268" type="curve"/>
		</contour>
		<component base="i"/>
	</outline>
	<lib>
		<dict>
			<key>com.schriftgestaltung.Glyphs.leftMetricsKey</key>
			<string>i</string>
			<key>com.schriftgestaltung.Glyphs.rightMetricsKey</key>
			<string>e</string>
		</dict>
	</lib>
</glyph>
