<?xml version="1.0" encoding="UTF-8"?>
<glyph name="n_n_e" format="2">
	<advance width="1168"/>
	<unicode hex="F3750"/>
	<note>
		n_n_e
	</note>
	<outline>
		<contour>
			<point x="28" y="-3" type="line"/>
			<point x="151" y="0" type="line"/>
			<point x="274" y="-3" type="line"/>
			<point x="274" y="20" type="line"/>
			<point x="258" y="22" type="line" smooth="yes"/>
			<point x="200" y="29"/>
			<point x="186" y="31"/>
			<point x="186" y="121" type="curve"/>
			<point x="186" y="321" type="line"/>
			<point x="203" y="365"/>
			<point x="254" y="424"/>
			<point x="327" y="424" type="curve"/>
			<point x="390" y="424"/>
			<point x="426" y="388"/>
			<point x="426" y="321" type="curve"/>
			<point x="426" y="121" type="line" smooth="yes"/>
			<point x="426" y="31"/>
			<point x="412" y="29"/>
			<point x="354" y="22" type="curve"/>
			<point x="338" y="20" type="line"/>
			<point x="338" y="-3" type="line"/>
			<point x="461" y="0" type="line"/>
			<point x="584" y="-3" type="line"/>
			<point x="584" y="20" type="line"/>
			<point x="568" y="22" type="line" smooth="yes"/>
			<point x="510" y="29"/>
			<point x="496" y="31"/>
			<point x="496" y="121" type="curve"/>
			<point x="496" y="321" type="line" smooth="yes"/>
			<point x="496" y="366"/>
			<point x="440" y="454"/>
			<point x="349" y="454" type="curve"/>
			<point x="274" y="454"/>
			<point x="217" y="412"/>
			<point x="186" y="367" type="curve"/>
			<point x="186" y="448" type="line"/>
			<point x="131" y="438"/>
			<point x="83" y="436"/>
			<point x="28" y="436" type="curve"/>
			<point x="28" y="413" type="line"/>
			<point x="35" y="413" type="line" smooth="yes"/>
			<point x="85" y="413"/>
			<point x="116" y="401"/>
			<point x="116" y="332" type="curve"/>
			<point x="116" y="121" type="line" smooth="yes"/>
			<point x="116" y="31"/>
			<point x="102" y="29"/>
			<point x="44" y="22" type="curve"/>
			<point x="28" y="20" type="line"/>
		</contour>
		<contour>
			<point x="736" y="251" type="line"/>
			<point x="806" y="251" type="line"/>
			<point x="806" y="541" type="line" smooth="yes"/>
			<point x="806" y="557"/>
			<point x="806" y="674"/>
			<point x="659" y="674" type="curve"/>
			<point x="584" y="674"/>
			<point x="527" y="632"/>
			<point x="496" y="587" type="curve"/>
			<point x="496" y="668" type="line"/>
			<point x="441" y="658"/>
			<point x="393" y="656"/>
			<point x="338" y="656" type="curve"/>
			<point x="338" y="633" type="line"/>
			<point x="345" y="633" type="line" smooth="yes"/>
			<point x="395" y="633"/>
			<point x="426" y="621"/>
			<point x="426" y="552" type="curve"/>
			<point x="426" y="281" type="line"/>
			<point x="496" y="281" type="line"/>
			<point x="496" y="541" type="line"/>
			<point x="513" y="585"/>
			<point x="564" y="644"/>
			<point x="637" y="644" type="curve"/>
			<point x="700" y="644"/>
			<point x="736" y="608"/>
			<point x="736" y="541" type="curve"/>
		</contour>
		<contour>
			<point x="955" y="-11" type="curve"/>
			<point x="1046" y="-11"/>
			<point x="1105" y="31"/>
			<point x="1133" y="115" type="curve"/>
			<point x="1109" y="124" type="line"/>
			<point x="1082" y="54"/>
			<point x="1031" y="19"/>
			<point x="969" y="19" type="curve"/>
			<point x="868" y="19"/>
			<point x="816" y="110"/>
			<point x="816" y="217" type="curve"/>
			<point x="816" y="227"/>
			<point x="816" y="236"/>
			<point x="817" y="245" type="curve"/>
			<point x="736" y="289" type="line"/>
			<point x="736" y="212" type="line"/>
			<point x="736" y="81"/>
			<point x="823" y="-11"/>
		</contour>
		<contour>
			<point x="819" y="268" type="line"/>
			<point x="830" y="365"/>
			<point x="876" y="429"/>
			<point x="958" y="429" type="curve"/>
			<point x="1007" y="429"/>
			<point x="1055" y="393"/>
			<point x="1055" y="335" type="curve"/>
			<point x="1055" y="305"/>
			<point x="1036" y="268"/>
			<point x="946" y="268" type="curve"/>
		</contour>
		<contour>
			<point x="772" y="245" type="line"/>
			<point x="812" y="245"/>
			<point x="815" y="245"/>
			<point x="817" y="245" type="curve"/>
			<point x="1119" y="245" type="line"/>
			<point x="1120" y="249"/>
			<point x="1122" y="260"/>
			<point x="1122" y="276" type="curve"/>
			<point x="1122" y="382"/>
			<point x="1060" y="454"/>
			<point x="958" y="454" type="curve"/>
			<point x="881" y="454"/>
			<point x="812" y="412"/>
			<point x="772" y="307" type="curve"/>
		</contour>
	</outline>
	<lib>
		<dict>
			<key>com.schriftgestaltung.Glyphs.rightMetricsKey</key>
			<string>e</string>
		</dict>
	</lib>
</glyph>
