<?xml version="1.0" encoding="UTF-8"?>
<glyph name="paragraph" format="2">
	<advance width="600"/>
	<unicode hex="00B6"/>
	<note>
		paragraph
	</note>
	<outline>
		<contour>
			<point x="298" y="329" type="curve"/>
			<point x="298" y="329" type="line"/>
			<point x="298" y="-186" type="line"/>
			<point x="340" y="-186" type="line"/>
			<point x="340" y="676" type="line"/>
			<point x="430" y="676" type="line"/>
			<point x="430" y="-186" type="line"/>
			<point x="471" y="-186" type="line"/>
			<point x="471" y="641" type="line" smooth="yes"/>
			<point x="471" y="677"/>
			<point x="508" y="685"/>
			<point x="561" y="685" type="curve"/>
			<point x="561" y="712" type="line"/>
			<point x="367" y="710" type="line"/>
			<point x="276" y="712" type="line"/>
			<point x="139" y="708"/>
			<point x="63" y="628"/>
			<point x="63" y="522" type="curve"/>
			<point x="63" y="396"/>
			<point x="153" y="329"/>
		</contour>
	</outline>
</glyph>
