<?xml version="1.0" encoding="UTF-8"?>
<glyph name="uacute" format="2">
	<advance width="571"/>
	<unicode hex="00FA"/>
	<note>
		uacute
	</note>
	<outline>
		<contour>
			<point x="264" y="666" type="curve"/>
			<point x="264" y="666" type="line"/>
			<point x="225" y="518" type="line"/>
			<point x="247" y="518" type="line"/>
			<point x="321" y="637" type="line" smooth="yes"/>
			<point x="331" y="653"/>
			<point x="338" y="670"/>
			<point x="338" y="686" type="curve"/>
			<point x="338" y="710"/>
			<point x="323" y="722"/>
			<point x="307" y="722" type="curve"/>
			<point x="291" y="722"/>
			<point x="275" y="708"/>
		</contour>
		<contour>
			<point x="478" y="111" type="curve"/>
			<point x="478" y="111" type="line"/>
			<point x="478" y="434" type="line"/>
			<point x="443" y="433" type="line"/>
			<point x="320" y="436" type="line"/>
			<point x="320" y="413" type="line"/>
			<point x="336" y="411" type="line" smooth="yes"/>
			<point x="394" y="404"/>
			<point x="408" y="402"/>
			<point x="408" y="312" type="curve"/>
			<point x="408" y="133" type="line"/>
			<point x="384" y="78"/>
			<point x="334" y="21"/>
			<point x="261" y="21" type="curve"/>
			<point x="204" y="21"/>
			<point x="168" y="56"/>
			<point x="168" y="122" type="curve"/>
			<point x="168" y="434" type="line"/>
			<point x="133" y="433" type="line"/>
			<point x="10" y="436" type="line"/>
			<point x="10" y="413" type="line"/>
			<point x="26" y="411" type="line" smooth="yes"/>
			<point x="84" y="404"/>
			<point x="98" y="402"/>
			<point x="98" y="312" type="curve"/>
			<point x="98" y="118" type="line" smooth="yes"/>
			<point x="98" y="33"/>
			<point x="151" y="-11"/>
			<point x="238" y="-11" type="curve"/>
			<point x="303" y="-11"/>
			<point x="352" y="16"/>
			<point x="387" y="55" type="curve"/>
			<point x="395" y="64"/>
			<point x="402" y="73"/>
			<point x="408" y="83" type="curve"/>
			<point x="408" y="-9" type="line"/>
			<point x="466" y="1"/>
			<point x="506" y="1"/>
			<point x="561" y="1" type="curve"/>
			<point x="561" y="24" type="line"/>
			<point x="507" y="24"/>
			<point x="478" y="35"/>
		</contour>
	</outline>
</glyph>
