<?xml version="1.0" encoding="UTF-8"?>
<glyph name="uni01D7.sc" format="2">
	<advance width="558"/>
	<note>
		uni01D7.sc
	</note>
	<outline>
		<contour>
			<point x="297" y="703" type="line"/>
			<point x="309" y="703" type="line"/>
			<point x="404" y="883" type="line"/>
			<point x="323" y="883" type="line"/>
		</contour>
		<contour>
			<point x="216" y="576" type="curve"/>
			<point x="216" y="576" type="line"/>
			<point x="250" y="576"/>
			<point x="266" y="601"/>
			<point x="266" y="633" type="curve"/>
			<point x="266" y="664"/>
			<point x="250" y="689"/>
			<point x="216" y="689" type="curve"/>
			<point x="184" y="689"/>
			<point x="165" y="664"/>
			<point x="165" y="633" type="curve"/>
			<point x="165" y="601"/>
			<point x="184" y="576"/>
		</contour>
		<contour>
			<point x="406" y="576" type="curve"/>
			<point x="406" y="576" type="line"/>
			<point x="440" y="576"/>
			<point x="456" y="601"/>
			<point x="456" y="633" type="curve"/>
			<point x="456" y="664"/>
			<point x="440" y="689"/>
			<point x="406" y="689" type="curve"/>
			<point x="374" y="689"/>
			<point x="355" y="664"/>
			<point x="355" y="633" type="curve"/>
			<point x="355" y="601"/>
			<point x="374" y="576"/>
		</contour>
		<contour>
			<point x="306" y="-10" type="curve"/>
			<point x="306" y="-10" type="line"/>
			<point x="407" y="-10"/>
			<point x="473" y="49"/>
			<point x="473" y="168" type="curve"/>
			<point x="473" y="333" type="line" smooth="yes"/>
			<point x="473" y="423"/>
			<point x="487" y="425"/>
			<point x="545" y="432" type="curve"/>
			<point x="561" y="434" type="line"/>
			<point x="561" y="457" type="line"/>
			<point x="460" y="455" type="line"/>
			<point x="359" y="457" type="line"/>
			<point x="359" y="434" type="line"/>
			<point x="375" y="432" type="line" smooth="yes"/>
			<point x="433" y="425"/>
			<point x="447" y="423"/>
			<point x="447" y="333" type="curve"/>
			<point x="447" y="168" type="line" smooth="yes"/>
			<point x="447" y="64"/>
			<point x="394" y="20"/>
			<point x="317" y="20" type="curve"/>
			<point x="231" y="20"/>
			<point x="180" y="73"/>
			<point x="180" y="165" type="curve"/>
			<point x="180" y="334" type="line" smooth="yes"/>
			<point x="180" y="424"/>
			<point x="194" y="426"/>
			<point x="252" y="433" type="curve"/>
			<point x="268" y="435" type="line"/>
			<point x="268" y="458" type="line"/>
			<point x="145" y="455" type="line"/>
			<point x="22" y="458" type="line"/>
			<point x="22" y="435" type="line"/>
			<point x="38" y="433" type="line" smooth="yes"/>
			<point x="96" y="426"/>
			<point x="110" y="424"/>
			<point x="110" y="334" type="curve"/>
			<point x="110" y="165" type="line" smooth="yes"/>
			<point x="110" y="40"/>
			<point x="196" y="-10"/>
		</contour>
	</outline>
</glyph>
