<?xml version="1.0" encoding="UTF-8"?>
<glyph name="uni030B.sc" format="2">
	<advance width="0"/>
	<note>
		uni030B.sc
	</note>
	<outline>
		<contour>
			<point x="-157" y="761" type="line"/>
			<point x="-145" y="761" type="line"/>
			<point x="-50" y="941" type="line"/>
			<point x="-131" y="941" type="line"/>
		</contour>
		<contour>
			<point x="-290" y="760" type="line"/>
			<point x="-278" y="760" type="line"/>
			<point x="-183" y="940" type="line"/>
			<point x="-264" y="940" type="line"/>
		</contour>
	</outline>
</glyph>
