<?xml version="1.0" encoding="UTF-8"?>
<glyph name="wgrave.sc" format="2">
	<advance width="708"/>
	<note>
		wgrave.sc
	</note>
	<outline>
		<contour>
			<point x="377" y="505" type="line"/>
			<point x="351" y="685" type="line"/>
			<point x="270" y="685" type="line"/>
			<point x="365" y="505" type="line"/>
		</contour>
		<contour>
			<point x="695" y="431" type="curve"/>
			<point x="695" y="431" type="line"/>
			<point x="711" y="434" type="line"/>
			<point x="711" y="456" type="line"/>
			<point x="635" y="452" type="line"/>
			<point x="548" y="456" type="line"/>
			<point x="548" y="433" type="line"/>
			<point x="570" y="430" type="line" smooth="yes"/>
			<point x="597" y="426"/>
			<point x="614" y="422"/>
			<point x="614" y="406" type="curve"/>
			<point x="614" y="402"/>
			<point x="613" y="398"/>
			<point x="611" y="393" type="curve"/>
			<point x="510" y="102" type="line"/>
			<point x="423" y="360" type="line" smooth="yes"/>
			<point x="419" y="373"/>
			<point x="417" y="384"/>
			<point x="417" y="393" type="curve"/>
			<point x="417" y="418"/>
			<point x="430" y="430"/>
			<point x="453" y="432" type="curve"/>
			<point x="475" y="434" type="line"/>
			<point x="473" y="457" type="line"/>
			<point x="414" y="453" type="line" smooth="yes"/>
			<point x="391" y="451"/>
			<point x="372" y="441"/>
			<point x="360" y="426" type="curve"/>
			<point x="351" y="441"/>
			<point x="334" y="451"/>
			<point x="305" y="454" type="curve"/>
			<point x="275" y="457" type="line"/>
			<point x="272" y="434" type="line"/>
			<point x="298" y="431" type="line" smooth="yes"/>
			<point x="325" y="428"/>
			<point x="343" y="415"/>
			<point x="343" y="391" type="curve"/>
			<point x="343" y="383"/>
			<point x="340" y="373"/>
			<point x="336" y="363" type="curve"/>
			<point x="228" y="93" type="line"/>
			<point x="132" y="384" type="line" smooth="yes"/>
			<point x="130" y="390"/>
			<point x="129" y="394"/>
			<point x="129" y="399" type="curve"/>
			<point x="129" y="421"/>
			<point x="151" y="430"/>
			<point x="180" y="433" type="curve"/>
			<point x="197" y="435" type="line"/>
			<point x="195" y="457" type="line"/>
			<point x="86" y="453" type="line"/>
			<point x="-15" y="457" type="line"/>
			<point x="-15" y="435" type="line"/>
			<point x="-1" y="433" type="line" smooth="yes"/>
			<point x="28" y="429"/>
			<point x="45" y="421"/>
			<point x="54" y="393" type="curve"/>
			<point x="188" y="-4" type="line"/>
			<point x="215" y="-4" type="line"/>
			<point x="354" y="339" type="line"/>
			<point x="475" y="-4" type="line"/>
			<point x="499" y="-4" type="line"/>
			<point x="638" y="397" type="line" smooth="yes"/>
			<point x="645" y="418"/>
			<point x="666" y="426"/>
		</contour>
	</outline>
</glyph>
