<?xml version="1.0" encoding="UTF-8"?>
<glyph name="e.sups" format="2">
	<advance width="389"/>
	<note>
		e.sups
  </note>
	<outline>
		<contour>
			<point x="369" y="388" type="curve"/>
			<point x="369" y="388" type="line"/>
			<point x="345" y="396" type="line"/>
			<point x="323" y="339"/>
			<point x="282" y="313"/>
			<point x="234" y="313" type="curve"/>
			<point x="150" y="313"/>
			<point x="108" y="383"/>
			<point x="108" y="466" type="curve"/>
			<point x="108" y="484" type="line"/>
			<point x="357" y="484" type="line"/>
			<point x="361" y="493"/>
			<point x="362" y="501"/>
			<point x="362" y="512" type="curve"/>
			<point x="362" y="597"/>
			<point x="307" y="651"/>
			<point x="223" y="651" type="curve"/>
			<point x="118" y="651"/>
			<point x="35" y="569"/>
			<point x="35" y="462" type="curve"/>
			<point x="35" y="359"/>
			<point x="110" y="288"/>
			<point x="223" y="288" type="curve"/>
			<point x="297" y="288"/>
			<point x="346" y="322"/>
		</contour>
		<contour>
			<point x="223" y="628" type="curve"/>
			<point x="223" y="628" type="line"/>
			<point x="262" y="628"/>
			<point x="300" y="601"/>
			<point x="300" y="558" type="curve"/>
			<point x="300" y="523"/>
			<point x="269" y="506"/>
			<point x="213" y="506" type="curve"/>
			<point x="111" y="506" type="line"/>
			<point x="120" y="576"/>
			<point x="156" y="628"/>
		</contour>
	</outline>
</glyph>
