<?xml version="1.0" encoding="UTF-8"?>
<glyph name="Eacute_E" format="2">
	<advance width="994"/>
	<unicode hex="F1820"/>
	<note>
		Eacute_E
  </note>
	<outline>
		<contour>
			<point x="471" y="940" type="line"/>
			<point x="390" y="940" type="line"/>
			<point x="364" y="760" type="line"/>
			<point x="376" y="760" type="line"/>
		</contour>
		<contour>
			<point x="188" y="0" type="line"/>
			<point x="944" y="0" type="line"/>
			<point x="947" y="90" type="line"/>
			<point x="954" y="210" type="line"/>
			<point x="929" y="210" type="line"/>
			<point x="916" y="55"/>
			<point x="884" y="28"/>
			<point x="768" y="28" type="curve"/>
			<point x="675" y="28" type="line" smooth="yes"/>
			<point x="599" y="28"/>
			<point x="576" y="43"/>
			<point x="576" y="107" type="curve"/>
			<point x="576" y="360" type="line"/>
			<point x="688" y="360" type="line" smooth="yes"/>
			<point x="734" y="360"/>
			<point x="759" y="323"/>
			<point x="759" y="226" type="curve"/>
			<point x="784" y="226" type="line"/>
			<point x="781" y="374" type="line"/>
			<point x="784" y="508" type="line"/>
			<point x="759" y="508" type="line"/>
			<point x="754" y="409"/>
			<point x="727" y="388"/>
			<point x="688" y="388" type="curve"/>
			<point x="576" y="388" type="line"/>
			<point x="576" y="681" type="line"/>
			<point x="708" y="681" type="line" smooth="yes"/>
			<point x="856" y="681"/>
			<point x="888" y="667"/>
			<point x="907" y="546" type="curve"/>
			<point x="931" y="546" type="line"/>
			<point x="923" y="638" type="line"/>
			<point x="921" y="710" type="line"/>
			<point x="188" y="710" type="line"/>
			<point x="40" y="713" type="line"/>
			<point x="40" y="688" type="line"/>
			<point x="60" y="686" type="line" smooth="yes"/>
			<point x="129" y="678"/>
			<point x="146" y="676"/>
			<point x="146" y="577" type="curve"/>
			<point x="146" y="133" type="line" smooth="yes"/>
			<point x="146" y="34"/>
			<point x="129" y="32"/>
			<point x="60" y="24" type="curve"/>
			<point x="40" y="22" type="line"/>
			<point x="40" y="-3" type="line"/>
		</contour>
		<contour>
			<point x="491" y="577" type="curve"/>
			<point x="491" y="577" type="line"/>
			<point x="491" y="388" type="line"/>
			<point x="231" y="388" type="line"/>
			<point x="231" y="681" type="line"/>
			<point x="405" y="681" type="line" smooth="yes"/>
			<point x="476" y="681"/>
			<point x="491" y="673"/>
		</contour>
		<contour>
			<point x="405" y="28" type="curve"/>
			<point x="405" y="28" type="line"/>
			<point x="330" y="28" type="line" smooth="yes"/>
			<point x="254" y="28"/>
			<point x="231" y="43"/>
			<point x="231" y="107" type="curve"/>
			<point x="231" y="360" type="line"/>
			<point x="491" y="360" type="line"/>
			<point x="491" y="133" type="line" smooth="yes"/>
			<point x="491" y="37"/>
			<point x="474" y="28"/>
		</contour>
	</outline>
</glyph>
