<?xml version="1.0" encoding="UTF-8"?>
<glyph name="u_e" format="2">
	<advance width="840"/>
	<unicode hex="F5110"/>
	<note>
		u_e
  </note>
	<outline>
		<contour>
			<point x="805" y="115" type="curve"/>
			<point x="805" y="115" type="line"/>
			<point x="781" y="124" type="line"/>
			<point x="754" y="54"/>
			<point x="703" y="19"/>
			<point x="641" y="19" type="curve"/>
			<point x="540" y="19"/>
			<point x="488" y="110"/>
			<point x="488" y="217" type="curve"/>
			<point x="488" y="227"/>
			<point x="488" y="236"/>
			<point x="489" y="245" type="curve"/>
			<point x="791" y="245" type="line"/>
			<point x="792" y="249"/>
			<point x="794" y="260"/>
			<point x="794" y="276" type="curve"/>
			<point x="794" y="382"/>
			<point x="732" y="454"/>
			<point x="630" y="454" type="curve"/>
			<point x="571" y="454"/>
			<point x="518" y="430"/>
			<point x="478" y="390" type="curve"/>
			<point x="478" y="434" type="line"/>
			<point x="443" y="433" type="line"/>
			<point x="320" y="436" type="line"/>
			<point x="320" y="413" type="line"/>
			<point x="336" y="411" type="line" smooth="yes"/>
			<point x="394" y="404"/>
			<point x="408" y="402"/>
			<point x="408" y="312" type="curve"/>
			<point x="408" y="133" type="line"/>
			<point x="384" y="78"/>
			<point x="334" y="21"/>
			<point x="261" y="21" type="curve"/>
			<point x="204" y="21"/>
			<point x="168" y="56"/>
			<point x="168" y="122" type="curve"/>
			<point x="168" y="434" type="line"/>
			<point x="133" y="433" type="line"/>
			<point x="10" y="436" type="line"/>
			<point x="10" y="413" type="line"/>
			<point x="26" y="411" type="line" smooth="yes"/>
			<point x="84" y="404"/>
			<point x="98" y="402"/>
			<point x="98" y="312" type="curve"/>
			<point x="98" y="118" type="line" smooth="yes"/>
			<point x="98" y="33"/>
			<point x="151" y="-11"/>
			<point x="238" y="-11" type="curve"/>
			<point x="303" y="-11"/>
			<point x="352" y="16"/>
			<point x="387" y="55" type="curve"/>
			<point x="402" y="72"/>
			<point x="417" y="90"/>
			<point x="428" y="111" type="curve"/>
			<point x="461" y="36"/>
			<point x="532" y="-11"/>
			<point x="627" y="-11" type="curve"/>
			<point x="718" y="-11"/>
			<point x="777" y="31"/>
		</contour>
		<contour>
			<point x="630" y="429" type="curve"/>
			<point x="630" y="429" type="line"/>
			<point x="679" y="429"/>
			<point x="727" y="393"/>
			<point x="727" y="335" type="curve"/>
			<point x="727" y="305"/>
			<point x="708" y="268"/>
			<point x="618" y="268" type="curve"/>
			<point x="491" y="268" type="line"/>
			<point x="502" y="365"/>
			<point x="548" y="429"/>
		</contour>
	</outline>
</glyph>
