<?xml version="1.0" encoding="UTF-8"?>
<glyph name="uni0146" format="2">
	<advance width="595"/>
	<unicode hex="0146"/>
	<note>
		uni0146
  </note>
	<outline>
		<contour>
			<point x="338" y="-3" type="line"/>
			<point x="461" y="0" type="line"/>
			<point x="584" y="-3" type="line"/>
			<point x="584" y="20" type="line"/>
			<point x="568" y="22" type="line" smooth="yes"/>
			<point x="510" y="29"/>
			<point x="496" y="31"/>
			<point x="496" y="121" type="curve"/>
			<point x="496" y="321" type="line" smooth="yes"/>
			<point x="496" y="406"/>
			<point x="440" y="454"/>
			<point x="349" y="454" type="curve"/>
			<point x="274" y="454"/>
			<point x="217" y="412"/>
			<point x="186" y="367" type="curve"/>
			<point x="186" y="448" type="line"/>
			<point x="131" y="438"/>
			<point x="83" y="436"/>
			<point x="28" y="436" type="curve"/>
			<point x="28" y="413" type="line"/>
			<point x="35" y="413" type="line" smooth="yes"/>
			<point x="85" y="413"/>
			<point x="116" y="401"/>
			<point x="116" y="332" type="curve"/>
			<point x="116" y="121" type="line" smooth="yes"/>
			<point x="116" y="31"/>
			<point x="102" y="29"/>
			<point x="44" y="22" type="curve"/>
			<point x="28" y="20" type="line"/>
			<point x="28" y="-3" type="line"/>
			<point x="151" y="0" type="line"/>
			<point x="274" y="-3" type="line"/>
			<point x="274" y="20" type="line"/>
			<point x="258" y="22" type="line" smooth="yes"/>
			<point x="200" y="29"/>
			<point x="186" y="31"/>
			<point x="186" y="121" type="curve"/>
			<point x="186" y="321" type="line"/>
			<point x="203" y="365"/>
			<point x="254" y="424"/>
			<point x="327" y="424" type="curve"/>
			<point x="390" y="424"/>
			<point x="426" y="388"/>
			<point x="426" y="321" type="curve"/>
			<point x="426" y="121" type="line" smooth="yes"/>
			<point x="426" y="31"/>
			<point x="412" y="29"/>
			<point x="354" y="22" type="curve"/>
			<point x="338" y="20" type="line"/>
		</contour>
		<contour>
			<point x="310" y="-87" type="curve"/>
			<point x="310" y="-87" type="line"/>
			<point x="281" y="-87"/>
			<point x="261" y="-107"/>
			<point x="261" y="-136" type="curve"/>
			<point x="261" y="-163"/>
			<point x="279" y="-181"/>
			<point x="306" y="-181" type="curve"/>
			<point x="324" y="-181"/>
			<point x="341" y="-167"/>
			<point x="341" y="-153" type="curve"/>
			<point x="341" y="-146"/>
			<point x="338" y="-141"/>
			<point x="338" y="-138" type="curve"/>
			<point x="338" y="-138"/>
			<point x="338" y="-137"/>
			<point x="339" y="-136" type="curve"/>
			<point x="349" y="-132"/>
			<point x="354" y="-153"/>
			<point x="354" y="-171" type="curve"/>
			<point x="354" y="-218"/>
			<point x="321" y="-248"/>
			<point x="285" y="-273" type="curve"/>
			<point x="295" y="-288" type="line"/>
			<point x="338" y="-260"/>
			<point x="370" y="-230"/>
			<point x="370" y="-169" type="curve"/>
			<point x="370" y="-119"/>
			<point x="346" y="-87"/>
		</contour>
	</outline>
</glyph>
