<?xml version="1.0" encoding="UTF-8"?>
<glyph name="zero.sups" format="2">
	<advance width="402"/>
	<note>
		zero.sups
  </note>
	<outline>
		<contour>
			<point x="200" y="291" type="curve"/>
			<point x="200" y="291" type="line"/>
			<point x="305" y="291"/>
			<point x="372" y="374"/>
			<point x="372" y="505" type="curve"/>
			<point x="372" y="634"/>
			<point x="305" y="717"/>
			<point x="200" y="717" type="curve"/>
			<point x="97" y="717"/>
			<point x="30" y="634"/>
			<point x="30" y="505" type="curve"/>
			<point x="30" y="374"/>
			<point x="97" y="291"/>
		</contour>
		<contour>
			<point x="200" y="316" type="curve"/>
			<point x="200" y="316" type="line"/>
			<point x="134" y="316"/>
			<point x="104" y="373"/>
			<point x="104" y="505" type="curve"/>
			<point x="104" y="635"/>
			<point x="134" y="692"/>
			<point x="200" y="692" type="curve"/>
			<point x="268" y="692"/>
			<point x="298" y="635"/>
			<point x="298" y="505" type="curve"/>
			<point x="298" y="373"/>
			<point x="268" y="316"/>
		</contour>
	</outline>
</glyph>
