<?xml version="1.0" encoding="UTF-8"?>
<glyph name="f_e" format="2">
	<advance width="506"/>
	<outline>
		<contour>
			<point x="25" y="-3" type="line"/>
			<point x="148" y="0" type="line"/>
			<point x="271" y="-3" type="line"/>
			<point x="271" y="20" type="line"/>
			<point x="255" y="22" type="line" smooth="yes"/>
			<point x="197" y="29"/>
			<point x="183" y="31"/>
			<point x="183" y="121" type="curve"/>
			<point x="183" y="411" type="line"/>
			<point x="183" y="436" type="line"/>
			<point x="183" y="550" type="line" smooth="yes"/>
			<point x="183" y="632"/>
			<point x="197" y="699"/>
			<point x="273" y="699" type="curve"/>
			<point x="290" y="699"/>
			<point x="308" y="692"/>
			<point x="308" y="675" type="curve"/>
			<point x="308" y="671"/>
			<point x="307" y="667"/>
			<point x="305" y="662" type="curve"/>
			<point x="302" y="654"/>
			<point x="299" y="645"/>
			<point x="299" y="632" type="curve"/>
			<point x="299" y="611"/>
			<point x="318" y="590"/>
			<point x="343" y="590" type="curve"/>
			<point x="370" y="590"/>
			<point x="392" y="608"/>
			<point x="392" y="643" type="curve"/>
			<point x="392" y="696"/>
			<point x="341" y="724"/>
			<point x="273" y="724" type="curve"/>
			<point x="168" y="724"/>
			<point x="113" y="672"/>
			<point x="113" y="550" type="curve"/>
			<point x="113" y="436" type="line"/>
			<point x="27" y="436" type="line"/>
			<point x="27" y="411" type="line"/>
			<point x="113" y="411" type="line"/>
			<point x="113" y="121" type="line" smooth="yes"/>
			<point x="113" y="31"/>
			<point x="99" y="29"/>
			<point x="41" y="22" type="curve"/>
			<point x="25" y="20" type="line"/>
		</contour>
		<contour>
			<point x="183" y="268" type="line"/>
			<point x="194" y="365"/>
			<point x="240" y="429"/>
			<point x="322" y="429" type="curve"/>
			<point x="371" y="429"/>
			<point x="419" y="393"/>
			<point x="419" y="335" type="curve"/>
			<point x="419" y="305"/>
			<point x="400" y="268"/>
			<point x="310" y="268" type="curve"/>
		</contour>
		<contour>
			<point x="136" y="245" type="line"/>
			<point x="176" y="245"/>
			<point x="179" y="245"/>
			<point x="181" y="245" type="curve"/>
			<point x="483" y="245" type="line"/>
			<point x="484" y="249"/>
			<point x="486" y="260"/>
			<point x="486" y="276" type="curve"/>
			<point x="486" y="382"/>
			<point x="424" y="454"/>
			<point x="322" y="454" type="curve"/>
			<point x="245" y="454"/>
			<point x="176" y="412"/>
			<point x="136" y="307" type="curve"/>
		</contour>
	</outline>
</glyph>
